(A) Anthropometric data are preferred over craniometric data in the study of  growth because (B) soft tissue rather than hard tissue landmarks are used in  craniometric studies.,"A. A true, B true, A and B related<br>B. A true, B true, A and B not related<br>C. A true, B false<br>D. A false, B true<br>E. A and B false<br>","A true, B false","That's right, anthropometric data are preferred over craniometric data in growth  studies, not because soft tissue landmarks are used in anthropometry, but because  they are (or can be) longitudinal rather than cross-sectional. Craniometric data,  which are obtained from skulls (no soft tissue available), always are cross-sectional.  The soft tissue landmarks are a disadvantage of anthropometry for studies of skeletal  growth."
"""In fetal and postnatal growth, what is meant by the """"cephalocaudal gradient  of growth?""""""",A. head grows faster than trunk and limbs<br>B. trunk and limbs grow faster than head<br>C. cephalic structures are more important for growth<br>D. caudal structures are more important for growth<br>,trunk and limbs grow faster than head,"That's right. In very early (embryonic) development, the cranium represents 25% of  the whole individual, and the head about half. From then on, the trunk and limbs grow  faster than the head, and the face more than the cranium."
How would you establish a child's reading age?,"A. compare against standards for social development<br>B. compare against standards for reading development<br>C. evaluate with scores of standard IQ tests<br>D. not possible, developmental ages relate to physical characteristics only<br>",compare against standards for reading development,"That's right, there are standards for reading development just as there are  standards for development on other physical and social-psychological scales. A  child can be advanced or slow in reading just as he or she could be in physical  development. It's interesting that the different types of development are  highly correlated."
Which of the following is the most appropriate description of the concept  of pattern in growth?,A. proportional size relationships<br>B. changes in proportions over time<br>C. conservation of proportions as size increases<br>D. changes in proportions as size increases<br>,changes in proportions over time,That's right. Pattern in growth refers to the way in which proportional relationships  change (or are maintained) as the individual changes over time (whether or not he gets  bigger). The changing proportions of the face describe its growth pattern.
"""On growth charts with 6-month data plots, what is the significance of a  child """"crossing the percentiles"""" downward?""","A. indicates growth disturbance, perhaps chronic illness or chronic problem<br>B. Indicates increasingly active growth, perhaps tumor<br>C. no significance over this period of time, quick changes more important<br>D. no significance, changes in channels typically occur during normal growth<br>","indicates growth disturbance, perhaps chronic illness or chronic problem","That's right, a downward movement across the percentile channels over a 6 month  period indicates a growth disturbance and raises the question of some chronic illness  or other chronic problem. A normal child usually stays within his or her channel."
(A) Girls grow earlier than boys at adolescence because (B) girls mature  sexually earlier than boys.,"A. A true, B true, A and B related<br>B. A true, B true, A and B not related<br>C. A true, B false<br>D. A false, B true<br>E. A and B false<br>","A true, B true, A and B related","That's right. As a group, girls grow earlier than boys at adolescence, and the  reason is their earlier sexual maturation. In an important sense, adolescence and  adolescent growth is a sexual phenomenon."
Which of the following is not appropriately described as growth?,A. increase in size<br>B. increase in number<br>C. increase in complexity<br>D. increase in specialization<br>,increase in specialization,"""That is correct. Growth refers to an increase in size, number or occasionally complexity,  but not to increased specialization. The term """"development"""" often is used to  describe an increase in specialization of biologic functions, but sometimes it is used  to describe an increase in complexity--so sometimes there is an overlap with growth,  sometimes there isn't."""
"The value of implants, such as metallic pins placed in the jaws, in radiographic  studies of growth is that:",A. the implants mark areas of bone that are growing<br>B. the implants mark areas of bone that are remodeling<br>C. the implants mark areas of bone that are not growing or remodeling<br>D. the implants outline areas of bone of particular interest so they can be evaluated<br>,the implants mark areas of bone that are not growing or remodeling,"That's correct, the implants mark areas that are not growing or remodeling. This  provides stable areas for superimposition of longitudinal x-rays, and then you can  see which other areas are changing and how much, and which areas are not changing.  As this superimposition on implants in the mandible shows, implant studies are an  excellent way to determine the changing proportions that define the growth pattern."
What percentage of a normally distributed population is within two standard  deviations of the mean?,A. 50%<br>B. 66%<br>C. 78%<br>D. 87%<br>E. 95%<br>,95%,"That's right, 95% of the population are within two standard deviations of the mean,  and 99% are within three standard deviations. But when you're treating patients with  problems, you're likely to encounter individuals who are at the extremes of the  normal distribution."
How do vital stains contribute to the study of growth?,A. stain everything that was present when they were administered<br>B. stain everything that was growing when they were administered<br>C. stain everything that grew after they were administered<br>D. stain specific things that were growing at the time they were administered<br>,stain specific things that were growing at the time they were administered,"That's correct. A vital stain marks specific things that were growing when it was  administered, for instance, the bone that was being laid down at that time. Different  vital stains are used for different tissues. If it stained everything, you couldn't  distinguish one structure from another."
"Within the face, the postnatal cephalocaudal gradient of growth predicts that:",A. the face grows faster than the cranium<br>B. the mandible grows faster than the maxilla<br>C. the maxilla grows faster than the cranium<br>D. all of the above<br>E. none of the above<br>,all of the above,That's right. The cephalocaudal gradient of growth predicts (correctly) that a structure further  away from the cranium grow faster than one closer to it. So in postnatal life both jaws grow faster  than the cranium and the mandible grows faster than the maxilla.
"If a girl's bone age is 12, what is her chronologic age most likely to be?",A. 10<br>B. 11<br>C. 12<br>D. 13<br>,12,"That's right, the greatest probability is that the developmental age matches  the chronologic age. That's how the developmental age was established. But for any  individual, the chronologic and developmental ages may or may not coincide."
Which of the following is the major disadvantage of cephalometric radiography  in the study of growth?,A. requires damaging x-rays<br>B. requires complex head positioning equipment<br>C. makes it difficult to see soft tissue landmarks<br>D. offers a two-dimensional view of three-dimensional objects<br>,offers a two-dimensional view of three-dimensional objects,"That's right. All of the responses are disadvantages to some extent, but the  biggest disadvantage is the two-dimensional view that the radiograph provides. Changes  in distances between points that are not in the same plane will be distorted. The  compensating advantage is that longitudinal data for skeletal dimensions can be  obtained by superimposing tracings of serial cephalometric radiographs."
The difference between a growth distance curve and a growth velocity curve is that:,"A. distance curve plots total achieved, velocity curve plots increment<br>B. distance curve plots increment, velocity curve plots total achieved<br>C. both curves plot increment, but velocity curve magnifies it<br>D. both curves plot total achieved, but distance curve magnifies it<br>","distance curve plots total achieved, velocity curve plots increment","That's right. Distance curves plot the total growth achieved, velocity curves  plot the growth increment since the last measurement. Both types of plots are valuable,  depending on what you're trying to observe--but velocity plots make it easier to  appreciate the changes that are occurring, as at adolescence."
(A) Longitudinal growth data are quite inefficient in terms of the amount of information  obtained from each subject because (B) the longitudinal data highlight individual  variations.,"A. A true, B true, A and B related<br>B. A true, B true, A and B not related<br>C. A true, B false<br>D. A false, B true<br>E. A and B false<br>","A false, B true","That's right. Longitudinal data are very efficient, not inefficient, for growth studies, so  the first statement is false. It's true that the longitudinal data highlight individual  variations, so the second statement is true. That's another advantage of longitudinal  versus cross-sectional data."
What does it mean to say that a child is in the 95% percentile for height?,A. she's in the shortest 5% of the population her age<br>B. she's in the tallest 5% of the population her age<br>C. she's more than two standard deviations below the mean<br>D. she's more than two standard deviations above the mean<br>,she's in the tallest 5% of the population her age,"That's correct, she's in the tallest 5%, taller than 95% of her age group. But that puts  her within two standard deviations of the mean, in her case, exactly two above."
"In growth of the craniofacial skeleton, which of the following cellular  activities is most active?",A. Hyperplasia<br>B. Hypertrophy<br>C. Secretion of extracellular material<br>D. All are equally important<br>,Secretion of extracellular material,"That is correct. Although all the cellular processes are important, secretion of  extracullar material is particularly important in growth of the skeletal system, in  which the extracellular material later calcifies into bone. Cartilage cells mature and  secrete extracellular matrix that becomes calcified; osteoblasts also later form new  bone by secreting extracellular matrix that calcifies."
"In growth of the cranial and facial soft tissues, which of the following cellular  activities is the least important?",A. Hyperplasia<br>B. Hypertrophy<br>C. Secretion of extracellular material<br>D. All are equally important<br>,Secretion of extracellular material,"That’s right. Secretion of extracellular material can occur as soft tissues are  formed, but this is not an important characteristic of growth of the craniofacial soft tissues."
(A) Interstitial growth does not occur in the growth of calcified tissues because  (B) the rigid calcified tissue mass cannot expand internally.,"A. A true, B true, A and B related<br>B. A true, B true, A and B not related<br>C. A True, B false<br>D. A false, B true<br>E. A and B false<br>","A true, B true, A and B related","That’s right. Calcified tissues don’t grow by interstitial growth that leads  to external expansion, because it’s physically impossible. So these statements  are both true and they're related."
Which of the following statements best describes the growth of a long bone of the limbs?,"A. The bone is formed in cartilage and replaced by endochondral ossification<br>B. Cartilage does all the growing, then is replaced by bone<br>C. A little cartilage is present originally, but most of the growth is bone apposition<br>D. Both replacement of cartilage and direct apposition of bone are major contributors to the growth<br>E. None of the above, there’s no role for cartilage except in facial growth<br>",Both replacement of cartilage and direct apposition of bone are major contributors to the growth,"That’s right. Replacement of cartilage that grows at the epiphyseal plates is very  important, but so is direct apposition of bone at the periosteum."
(A) Significant interstitial remodeling of long bones occurs around Haversian  systems because (B) the final increments of bone growth are obtained in  this manner.,"A. A true, B true, A And B related<br>B. A true, B true, A and B not related<br>C. A true, B false<br>D. A false, B true<br>E. A and B false<br>","A true, B false","That’s correct. It’s true that long bones remodel internally around their  Haversian systems, but this has almost nothing to do with growth, so the first statement  is true but the second is false."
(A) Formation of bone always requires the intermediate step of cartilage formation because  (B) osteoblasts must secrete their matrix on a framework of calcified cartilage.,"A. A true, B true, A And B related<br>B. A true, B true, A and B not related<br>C. A true, B false<br>D. A false, B true<br>E. A and B false<br>",A and B false,"That’s correct, both statements are false. Bone can be (and often is) formed without an  intermediate cartilage step, because osteoclasts can secrete their matrix directly in  connective tissue."
Growth of the cranial vault involves which of the following processes? (1) endochondral ossification at multiple growth centers (2) apposition of new bone at sutures  (3) apposition of new bone on external surfaces (4) apposition of new bone on internal surfaces,"A. 1 and 2<br>B. 2 and 3<br>C. 2, 4 and 4<br>D. All of the above<br>",2 and 3,"That’s right, the cranial vault grows primarily by apposition of new bone at the  sutures, and to a smaller extent by adding new bone on the outer surfaces, so the second  and third statements are correct. There aren’t any growth centers in the cranium  and no endochondral ossification, and bone is removed rather than added on the internal  surfaces, so the first and last statements are incorrect."
Which of the following types of growth is most important in the cranial base?,A. endochondral ossification at multiple growth centers<br>B. apposition of new bone along suture lines<br>C. apposition of new bone on external surfaces<br>D. removal of bone from internal surfaces<br>,endochondral ossification at multiple growth centers,"That’s right, all of these processes are involved to some extent in growth of the  cranial base—but cartilage growth and endochondral replacement of bone at the midline  synchondroses are particularly important in lengthening the cranial base and projecting  the midface forward."
Growth of the maxilla involves which of the following processes? (1) endochondral ossification at multiple growth centers  (2) apposition of new bone along suture lines  (3) apposition of new bone on external surfaces  (4) removal of bone from external or internal surfaces,"A. 1 and 2<br>B. 2 and 3<br>C. 3 and 4<br>D. 2, 3 and 4<br>E. all of the above<br>","2, 3 and 4","That’s right, there’s no direct endochondral ossification and no cartilaginous  growth centers in maxillary growth, and both growth at sutures and surface remodeling are  important. Compared to the cranium, the maxilla has less sutural growth and more remodeling  partly because it’s pushed forward by growth of the cranial base behind it and  remodeling occurs in response to that."
What is the major area for addition of new bone to the surface of the  maxilla during growth?,"A. tuberosity<br>B. upper anterior surface<br>C. lower anterior surface<br>D. paranasal areas<br>E. all of the above, bone is added to all surfaces about equally<br>",tuberosity,"That’s right, the main area of the maxilla where bone is added during growth is the  tuberosity. Formation of new bone here allows the dental arch to become longer during growth  and provides space of the molar teeth as they erupt. Most of the anterior surfaces, in contrast,  are resorbed rather than added to during growth."
Which of the following mechanisms move the roof of the mouth downward during growth? (1) endochondral ossification at the back of the maxilla  (2) displacement of the maxillary core from the cranium and cranial base  (3) apposition of bone on the inferior surface of the palatal bone (4) resorption of bone on the nasal surface of the palatal bone,"A. 1 only<br>B. 2 only<br>C. 2 and 3<br>D. 2, 3 and 4<br>E. all of the above<br>","2, 3 and 4","That’s right. No endochondral ossification is involved in downward movement of the roof of  the mouth, but displacement of the core of the maxilla and remodeling of the bony surfaces are  important. In some instances, with the roof of the mouth being an excellent example, the direction  of remodeling is the same as the direction of displacement."
(A) Most aspects of mandibular growth can be explained by endochondral ossification  because (B) a cartilaginous model of the mandible forms early in embryonic life and  then resorbs.,"A. A true, B true, A and B related<br>B. A true, B true, A and B not related<br>C. A true, B false<br>D. A false, B true<br>E. A and B false<br>","A false, B true","That’s correct. The first statement (A) is false, but the second statement  (B) is true. Mandibular growth is mostly a surface phenomenon, and endochondral  ossification at the condyle plays a smaller role, so the first statement is false.  It’s true that a cartilaginous model of the mandible forms early in life and  then resorbs, although the new, primarily membranous mandible forms alongside  it without really replacing it in the classic form of endochondral bone growth."
Which of the following is the best illustration of remodeling resorption?,A. backward movement of the mandibular ramus<br>B. forward movement of the chin<br>C. lateral movement of the mandibular alveolar process<br>D. backward movement of the maxillary tuberosity<br>,backward movement of the mandibular ramus,"That’s correct. The ramus moves backward as bone is removed from its front surface  and added to the back. There’s so much remodeling that in a young child, what at one  time was the back surface eventually becomes the front surface and then is resorbed away."
Which of the following is not an area of significant bone apposition during mandibular growth?,A. posterior border of ramus<br>B. superior border of ramus<br>C. alveolar process<br>D. chin<br>,chin,"That’s right. Little or no bone is added at the chin during mandibular growth, and  the area immediately above the chin prominence usually is resorptive. In contrast, there  is major apposition of bone in the other areas."
"After it first comes into occlusal contact with its antagonists at about age 6,  how much further does a typical permanent first molar erupt?",A. stops after coming into occlusion<br>B. 1-2 mm<br>C. 3-5 mm<br>D. 10 mm or more<br>,10 mm or more,"That’s correct, after it comes into occlusion a typical first molar has to erupt  a centimeter or more. The mandible grows away from the maxilla, creating a space into  which the teeth have to erupt to stay in occlusion, and there’s a lot of vertical  growth after age 6."
Which of the following is a site of interstitial growth?,A. synchondrosis of cranial base<br>B. roof of the mouth<br>C. ramus of the mandible<br>D. maxillary tuberosity<br>E. none of the above<br>,synchondrosis of cranial base,"That’s right, the synchondrosis contains cartilage that can and does grow interstitially, but  the other bony areas can’t grow interstitially."
Which of the following is not the focus of a major theory of craniofacial growth?,A. nervous system<br>B. bone<br>C. cartilage<br>D. soft tissue matrix<br>,nervous system,"That is correct. There have been no serious efforts to explain craniofacial growth  as determined by the nervous system, but major theories have been build around bone  as the primary determinant of its own growth, cartilage as the primary determinant  with bone as a follower, and the soft tissue matrix as the primary determinant with  cartilage and bone as secondary followers."
Which of the following can be considered evidence that the sutures between  craniofacial bones are sites but not centers of growth?,"A. 1 only<br>B. 1 and 2<br>C. 1, 2 and 3<br>D. none of the above<br>","1, 2 and 3","That's right, all three are correct. Both the failure of sutures to grow when they are  transplanted and their response to outside influences suggest that sutures react to  other influences and are not the primary determinant of their own growth."
(A) The epiphyseal plates of long bones and the synchondroses of the cranial  base can be considered centers of growth because (B) these areas are capable of  growing independently of local environment influences.,"A. A true, B true, A and B related<br>B. A true, B true, A and B not related<br>C. A true, B false<br>D. A false, B true<br>E. A and B false<br>","A true, B true, A and B related","That's right. The epiphyseal plates certainly, and the synchondroses almost  certainly, can grow independently. That's the definition of a growth center. The  independence of growth distinguishes a growth center from a growth site."
"Cartilage whose growth could potentially pull the maxilla away from the  cranium and cranial base, putting tension on sutures, is found in the:",A. maxillary tuberosity<br>B. synchondroses of the cranial base<br>C. mandibular condyle<br>D. nasal septum<br>E. all of the above<br>,nasal septum,"That's right. The cartilage of the nasal septum is located so that its growth  could pull the maxilla forward, separating the sutures and leading to growth at  those sites."
What happens when the cartilage of the nasal septum is surgically removed at an early age?,A. the prominence of the midface is greatly reduced<br>B. the prominence of the midface is slightly reduced<br>C. there is essentially no effect on the prominence of the midface<br>D. the midface isn’t affected but mandibular growth is stimulated<br>,the prominence of the midface is greatly reduced,"That's right, surgical removal of the septum at an early age greatly reduces the  prominence of the midface. That isn't controversial, but why it happens is. Proponents  of the cartilage theory say it's just what you'd expect if a growth center were  removed. Functional matrix proponents say it's just the effect of the surgery and  collapse of structures afterward, and the loss of the cartilage wasn't what made the  difference. It's hard to be absolutely certain, but the septal cartilage seems to  behave as if it had at least some characteristics of a growth center."
What happens when the mandibular condyle is transplanted to a different location?,"A. grows exuberantly, more than normal<br>B. grows normally<br>C. grows noticeably but perhaps less than normal<br>D. grows poorly, almost not at all<br>","grows poorly, almost not at all","That's correct, condylar cartilage grows very poorly when transplanted, almost not  at all. This is evidence that it is different from the primary growth cartilages and  lacks the potential to grow independently."
"(A) Fracture of the condylar process of the mandible in a growing child is a  devastating injury because (B) the fractured condyle is displaced, resorbs  and is lost.","A. A true, B true, A and B related<br>B. A true, B true, A and B not related<br>C. A true, B false<br>D. A false, B true<br>E. A and B false<br>","A false, B true","That's right, the first statement is false even thought the second is true. Early  condylar fracture usually does not lead to long term growth problems. The fractured  condyle is displaced, resorbs and is lost, but a new condylar process (complete with  a cartilage cap) usually regenerates and often normal growth occurs."
"What is the chance in humans that essentially normal growth will be observed  after the mandibular condyle, and its presumed growth center, are lost?",A. less than 15%<br>B. 15 – 40%<br>C. 40 – 75%<br>D. 65 – 85%<br>E. greater than 85%<br>,65 – 85%,"That's right. The chance of essentially normal growth is about 75% after a condylar  fracture that leads to resorption of the original condyle and regeneration of a new one.  But keep in mind that although most of the children do well, about 1 in 4, at least of  those who were diagnosed, has a growth problem long-term."
What is the usual determinant of growth of the cranial vault (brain case)?,A. mechanical pressure from growth of the brain<br>B. neurotrophic growth factors released by the growing brain<br>C. higher pressure in the cerebrospinal fluid as life stresses increase with age<br>D. cartilage proliferation at the synchondroses of the cranial base<br>,mechanical pressure from growth of the brain,"That's right, under normal conditions the size of the cranial vault reflects the  size of the brain beneath it because mechanical pressure form the growing brain separates  the sutures. Neurotrophic growth factors and cranial base growth have little or nothing to  do with the bone growth in the cranial vault, and cerebrospinal fluid pressure doesn't  increase during normal growth (although if it does increase, as in hydrocephaly, brain  growth is inhibited while the cranial vault expands)."
(A) Ankylosis of the mandible leads to growth failure because (B) displacement of  the mandible away from the skull as its soft tissue matrix grows is the normal  determinant of mandibular growth.,"A. A true, B true, A and B related<br>B. A true, B true, A and B not related<br>C. A true, B false<br>D. A false, B true<br>E. A and B false<br>","A true, B true, A and B related","That's right, both statements are true and very much related. Ankylosis that  prevents mandibular displacement impedes growth because the mandible has to be  displaced from the skull in order to grow. That doesn't mean there are no limits  on the mandible's growth, just that the limits are in the soft tissue, not in  the bone itself."
Lengthening of the cranial base occurs primarily because of:,A. pressure created by the growing brain above it<br>B. cartilage growth at the synchondroses<br>C. bony remodeling at the anterior and posterior sutures<br>D. forward displacement of the anterior cranial base due to jaw function<br>,cartilage growth at the synchondroses,"That's right. The cranial base lengthens primarily as a result of growth at the  synchondroses, which seems rather independent of the growth of the brain above it  (though some influence cannot be totally ruled out). Remodeling at the sutures and  jaw function are not determinants of this growth."
The maxilla grows forward because it is:,A. 1 only<br>B. 2 only<br>C. 3 only<br>D. 1 and 2<br>E. 2 and 3<br>,2 and 3,"That's right, the maxilla grows forward for two reasons. It's both pushed forward by  the cranial base, and pulled forward by the soft tissue matrix in which it's embedded.  But growth at the sutures is a reaction to the pull of the soft tissues, not a reason  for the growth."
The mandible grows forward because it is:,A. 1 only<br>B. 2 only<br>C. 3 only<br>D. 1 and 2<br>E. 2 and 3<br>F. all  the above<br>,2 only,"That's right. The mandible grows because it is pulled forward by the soft tissue  matrix. Condylar growth is reactive, and the cranial base growth is largely  irrelevant to forward movement of the mandible."
How does the body of the mandible become longer during growth?,A. 1 only<br>B. 2 only<br>C. 1 and 2<br>D. 2 and 3<br>E. 1 and 3<br>F. all  the above<br>,2 only,"That's correct. The body of the mandible gets longer as the ramus is remodeled, with  bone added to the posterior surface and removed from the anterior surface. The remodeling  is part of the response to growth of the soft tissue matrix around the mandible."
Which of the following is the most common eruption sequence in the mandibular  arch in the primary dentition?,"A. Central incisor, lateral incisor, canine, first molar, second molar.<br>B. Central incisor, lateral incisor, first molar, second molar, canine.<br>C. Central incisor, lateral incisor, first molar, canine, second molar.<br>D. Lateral incisor, central incisor, canine, first molar, second molar.<br>","Central incisor, lateral incisor, first molar, canine, second molar.",That’s right; in the mandibular arch the central incisor erupts first and is followed by the  lateral incisor. The next tooth to erupt is the first primary molar which appears to be out of  sequence skipping the canine. The canine then erupts and is followed by the second molar.
The eruption of the primary dentition is usually complete by:,A. 12-18 months of age.<br>B. 18-24 months of age.<br>C. 24-30 months of age.<br>D. 30-36 months of age.<br>,24-30 months of age.,That’s right; the eruption of the primary dentition is usually complete by 24-30 months of age  with the eruption of the maxillary second primary molar.
"A mother has brought her 2 year old daughter in for a new patient dental examination. During  the health history the mother states that her daughter has a fever, diarrhea and been irritable  for the last two days. Your examination reveals that the mandibular first primary molars are  erupting. Which of the following should you recommend to the mother?",A. Seek medical care to investigate the fever and diarrhea.<br>B. Reassure her that the symptoms are due to teething and not serious<br>C. Have her apply topical anesthetic gel to the soft tissue around the erupting teeth.<br>D. Prescribe a systemic antibiotic.<br>,Seek medical care to investigate the fever and diarrhea.,"That’s right; you should counsel the mother to seek medical care to investigate  the cause of the fever and diarrhea. One should not dismiss the symptoms as being related  to teething. The use of topical anesthetics around the erupting teeth may provide  some relief of local symptoms, but this ignores the potentially serious systemic symptoms.  The prescription of antibiotics is unwarranted, however, because a diagnosis of the  systemic problem has not been made and the cause of the fever and diarrhea are not  known. Unless there is a specific indication for antibiotics, their use may also  lead to the development of antibiotic resistance."
Which of the following conditions are associated with delayed eruption of primary teeth?,A. Hypophosphatasia<br>B. Hyperpituitarism<br>C. Cherubism<br>D. Hypothyroidism<br>,Hypothyroidism,"That’s right; the congenital and juvenile forms of hypothyroidism are associated with the  delayed eruption of primary and permanent teeth, and the delayed exfoliation of primary teeth.  The other three conditions are associated with early loss of primary teeth."
A mother brings in her 13-month-old son to see you because no primary teeth  have erupted at this time. What would be your advice to the mother concerning  the eruption of the teeth?,"A. No current intervention, this is within acceptable normal limits<br>B. Suspect an underlying condition inhibiting eruption<br>C. Obtain radiographs to investigate whether the teeth are present<br>D. Both 2 and 3<br>","No current intervention, this is within acceptable normal limits",That’s right; at the age of 13 months the eruption of the primary teeth is delayed  but still within acceptable normal limits. However by 18 months of age the majority of  children have some erupted primary teeth. In an 18-month-old with no erupted primary  teeth options 2 and 3 would be appropriate.
Which of the following is correct with respect to ankylosed primary teeth?,A. Diagnosis is confirmed radiographically in the majority of cases<br>B. The mandibular first molar is the most commonly affected tooth<br>C. A single tooth is most commonly involved<br>D. Maxillary teeth are more commonly involved than mandibular teeth<br>,The mandibular first molar is the most commonly affected tooth,That’s right; the mandibular first primary molar is the most commonly involved primary  tooth. Mandibular teeth are more often involved than the maxillary teeth and it is not uncommon  to have multiple ankylosed primary teeth in the same patient. In the majority of cases no evidence  of fusion between the root and the alveolar bone is apparent on radiographs.
"A mother brings her daughter (5 yr 10 months old) to see you. The mother is concerned  about the eruption of the lower incisors, as she now has “two rows of teeth”.  On examination you see that the lower central incisors are erupting lingual to the primary  central incisors, which have not exfoliated. What would be your advice to the mother?","A. The primary central incisors should be extracted at this appointment.<br>B. Consider a removable appliance to move the permanent teeth labially.<br>C. 1 and 2<br>D. No intervention required at this time, the primary centrals should exfoliate in time and the permanent centrals should move facially.<br>","No intervention required at this time, the primary centrals should exfoliate in time and the permanent centrals should move facially.","That’s right; no intervention is required at this time. As the permanent central  incisors erupt further, tongue forces usually will move them forward and stimulate the  exfoliation of the primary teeth. Extraction of the primary central incisors or the use  of an active appliance is not required at this time."
Which of the following is not commonly associated with the ectopic eruption of  a mandibular permanent lateral incisor?,A. Impaction of the central incisor<br>B. Shifting of the mandibular dental midline<br>C. Incisor crowding<br>D. Early loss of the ipsilateral primary canine<br>,Impaction of the central incisor,"That’s right; impaction of the permanent central incisor does not commonly  occur in these situations but the other things do. As you recall the central incisors  erupt before the lateral incisors and would not become impacted if the lateral incisor  erupts ectopically. Ectopic eruption of a mandibular permanent lateral incisor  commonly results in early loss of the primary canine on the same or ipsilateral  side. Once the primary canine is lost, the incisors are free to move laterally resulting  in a shift of the mandibular dental midline. This scenario is usually a sign of an  underlying crowding problem in the mandibular arch."
Which permanent tooth is most likely to erupt ectopically?,A. Maxillary lateral incisor<br>B. Mandibular canine<br>C. Mandibular second premolar<br>D. Maxillary first molar<br>,Maxillary first molar,"That’s right; although ectopic eruption of all these teeth can occur, the maxillary first  molar is the tooth most likely to do so. When it erupts ectopically the maxillary first molar  usually resorbs the distal surface of the primary second molar."
Approximately what percentage of ectopically erupting maxillary first permanent  molars self-correct and do not require intervention?,A. 1/3<br>B. 1/2<br>C. 2/3<br>D. 3/4<br>,2/3,"That’s right; approximately 2/3 of ectopically erupting maxillary first permanent  molars will self correct and do not require intervention. This would imply that in an age  appropriate child, after the initial diagnosis, a period of observation of 3-4 months is  recommended to see if self correction occurs."
(A) The apparent submergence of an ankylosed primary tooth is misleading because (B)  what really happens is that the ankylosed molar stops erupting while the adjacent teeth  continue to erupt.,"A. A true, B true, A and B related<br>B. A true, B true, A and B not related<br>C. A true, B false<br>D. A false, B true<br>E. A and B false<br>","A true, B true, A and B related",That’s right; both statements are true and related. Submergence is a misleading  term since the ankylosed tooth stops erupting while the adjacent teeth continue to erupt.
Which of the following is most likely to indicate underlying pathology  affecting the eruption process?,A. Eruption of the maxillary right but not the left central incisor<br>B. Accelerated eruption (3 months) of both maxillary central incisors<br>C. Delayed eruption (3 months) of both maxillary central incisors<br>D. All are equally important signs of potential pathology<br>,Eruption of the maxillary right but not the left central incisor,That’s right; a deviation of sequence or symmetry in eruption may indicate underlying  pathology and is a more important sign than symmetric acceleration or delay.
Primate spaces in the primary dentition are usually located:,A. In the maxillary arch between the canine and first molar<br>B. In the maxillary arch between the lateral incisor and canine<br>C. In the mandibular arch between the canine and lateral incisor<br>D. In the mandibular arch between the first and second molar<br>,In the maxillary arch between the lateral incisor and canine,That’s right; in the maxillary arch the primate spaces are between the lateral incisors  and canines while in the mandibular arch they are  between the canines and first molars.
"In the maxillary arch, which of following facilitates the eruption of the larger incisors  to replace the primary incisors?",A. Labial eruption path of the permanent incisors<br>B. Primate spacing between the primary canine and first molar<br>C. Expansion of the midpalatal suture<br>D. Increase in arch length due to growth in the tuberosity region<br>,Labial eruption path of the permanent incisors,"That’s right; in the maxillary arch, gaining space for eruption of the larger permanent  incisors is facilitated by their facially directed eruption, which increases arch length and  circumference. The maxillary primate space also helps their eruption, but it is located between  the canine and lateral incisor, not the canine and first molar. Midpalatal suture expansion and  growth in the tuberosity are important aspects of maxillary growth but they play a minimal role  in the eruption of the permanent incisors."
"In the primary dentition, the terminal plane of the mandibular second primary molar is  located behind the terminal plane of the maxillary second primary molar. What is the molar  classification for this patient?",A. Mesial step terminal plane<br>B. Flush terminal plane<br>C. Distal step terminal plane<br>D. Class III terminal plane<br>,Distal step terminal plane,"That’s right; the classification would be distal step, because the lower molar is distal  relative to the upper molar. The preferred relationship is a mesial step relationship where the  terminal plane of the lower molar is mesial to the terminal plane of the upper molar."
In the primary dentition which of the following relationships is most common?,A. Mesial step terminal plane<br>B. Flush terminal plane<br>C. Distal step terminal plane<br>D. Class III terminal plane<br>,Mesial step terminal plane,That’s right; mesial step terminal plane occurs in 49% of children while flush terminal plane  occurs in 37% and distal step terminal plane occurs in 14%.
The early mesial shift occurs at the time of the:,A. Exfoliation of the primary canines<br>B. Eruption of the first permanent molars<br>C. Exfoliation of the primary buccal segments<br>D. Eruption of the second permanent molars<br>,Eruption of the first permanent molars,"That’s right; the early mesial shift occurs at the time of the eruption of the first  permanent molars or approximately 6 years of age. As the permanent molars erupt they drift  forward closing the primate spaces, especially in the lower arch. The late mesial shift occurs  with the exfoliation of the primary buccal segments in the late mixed dentition."
"That’s right; leeway space is primarily due to the difference in the combined mesial  distal widths of the primary canine, first molar, second molar and the permanent canine, first  premolar and second premolar. The three primary teeth are wider than the permanent teeth. Leeway  space is a crucial part of the late mesial shift which helps patients attain a class I molar  relationship. The leeway space is larger in the mandibular arch (5mm) than the maxillary arch (3mm).",A. Too small to help patients attain a Class I molar relations<br>B. A crucial part of the early mesial shift<br>C. Larger in the maxillary arch than the mandibular arch<br>D. Due to differences in the size of posterior primary and permanent teeth<br>,Due to differences in the size of posterior primary and permanent teeth,"No, that’s incorrect. Leeway space is primarily due to the difference in the combined  mesial distal widths of the primary canine, first molar, second molar and the permanent canine,  first premolar and second premolar. The three primary teeth are wider than the permanent teeth.  Leeway space is a crucial part of the late mesial shift which helps patients attain a class I  molar relationship. The leeway space is larger in the mandibular arch (5mm) than the  maxillary arch (3mm)."
What percentage of patients with a flush terminal plane relationship in the mixed dentition  will develop into a Class I molar relationship in the permanent dentition?,A. 25<br>B. 40<br>C. 60<br>D. 75<br>,75,That’s right; 75% of patients with a flush terminal plane relationship in the mixed  dentition will develop into a class I molar relationship in the permanent dentition. This occurs  due to the late mesial shift and differential mandibular growth.
In the maxillary arch the incisor liability is approximately:,A. 3 mm<br>B. 4 mm<br>C. 5 mm<br>D. 6 mm<br>E. 7 mm<br>,7 mm,"That’s right; because the maxillary permanent incisors are bigger than their  primary predecessors by slightly more than 7mm, so that amount of additional space must  be gained in some way. The additional space needed to align the permanent incisors  is called the incisor liability."
The profile of a newborn infant can best be described as:,A. concave<br>B. straight<br>C. convex<br>D. any of the above due to birth molding<br>,convex,That’s right; the profile of a newborn infant is quite convex because of the  relative underdevelopment of the mandible at the time of birth.
What is the chance that a child with a distal step relationship of the primary  molars will self-correct to Class I permanent molars?,A. Extremely small<br>B. 10%<br>C. 75%<br>D. very likely<br>,Extremely small,"That’s right; the chance of spontaneous correction of a distal step relationship is  extremely small, much less than 10%."
The mandibular arch form of a newborn infant is:,A. ovoid<br>B. V-shaped<br>C. trapezoidal<br>D. square<br>,V-shaped,"That’s right; the mandibular arch form is rather V-shaped, which is noticeably different than  the ovoid maxillary arch."
"In a child, a lack of primate spaces in the dentition should be interpreted as:",A. supernumerary teeth are likely to be present<br>B. spacing in the arch is likely to occur long term<br>C. crowding of the permanent teeth is likely to occur<br>D. child is evolutionarily advanced<br>,crowding of the permanent teeth is likely to occur,That’s right; a lack of primate spaces strongly suggests that crowding of the  permanent teeth will occur.
Key differences between dental age 9 and dental age 10 are: (1) root completion of lower incisors  (2) degree of resorption of primary canines  (3) degree of root formation of canines and premolars,"A. 1 and 2<br>B. 2 and 3<br>C. 1 and 3<br>D. 1, 2 and 3<br>",2 and 3,"That’s right. At dental age 10, the primary canines show more resorption  and the canines and premolars have more root formation than at dental age 9, but  the appearance of the lower incisors is very similar at ages 9 and 10. It takes 2  years to complete the roots after an incisor erupts, so the lower incisors are  likely to already be complete at age 9."
What is the dental age when the roots of all the permanent teeth (except third molars)  are completed?,A. 12<br>B. 13<br>C. 14<br>D. 15<br>E. 16<br>,15,"That’s right, the roots of all permanent teeth except third molars are completed at  dental age 15.  The guideline is that it takes two years after eruption for the roots to be  completed, and the second molars often haven't completed their eruption at dental age 12,  so root completion wouldn't be expected at age 14 or younger."
"Which of the following is not characteristic of the first stage of  eruption, dental age 6?",A. eruption of the first permanent molars<br>B. eruption of the mandibular central incisors<br>C. eruption of the maxillary central incisors<br>D. formation of half the root of the mandibular lateral incisors<br>E. formation of less than half the root of the maxillary lateral incisors<br>,eruption of the maxillary central incisors,"That is correct. The maxillary central incisors erupt a year later than the permanent  first molars and the mandibular central incisors, so their eruption isn’t part of  dental age 6."
"""With regard to space for the permanent teeth as they erupt, what does the  term """"incisor liability"""" mean?""","A. space for incisors normally is less than required<br>B. space for incisors normally is only equal to required<br>C. if space is a problem, it’s almost always space for incisors that’s the problem.<br>D. you’re more likely to get sued if the incisors are involved<br>",space for incisors normally is less than required,"That’s right, incisor liability means that under normal conditions there isn’t  quite enough space for the permanent incisors when they erupt, which can lead to temporary  crowding even when there’s ultimately enough space."
"During normal develoment, which of the following is not a source of  additional space to overcome incisor liability?",A. increase in intercanine width<br>B. distal movement of the maxillary canine into primate space<br>C. distal movement of the mandibular canine into primate space<br>D. labial positioning of the permanent incisors<br>E. they’re all sources of additional space<br>,distal movement of the maxillary canine into primate space,"That’s correct, the maxillary canine can’t move distally into a primate  space that’s mesial to it, but the other possibilities all help overcome  incisor liability."
"To a dentist, a beautiful smile in the primary dentition reveals large spaces  between the primary incisors. Which of the following is not a reason for that attitude?","A. permanent incisors are likely to erupt in crossbite unless spaces are present.<br>B. spacing is required to provide enough space for the permanent teeth<br>C. large spaces are better than no spaces<br>D. crowding of the permanent teeth is likely even if small spaces are present.<br>E. in the absence of spacing, the permanent teeth are more likely to be displaced as they erupt.<br>",permanent incisors are likely to erupt in crossbite unless spaces are present.,"That’s correct. Large spaces between the primary incisors are necessary if  there’s to be enough room for the permanent incisors, but the amount of spacing  has little or nothing to do with whether the teeth erupt in crossbite."
At which dental age is eruption of the first permanent molars completed?,A. 6<br>B. 12<br>C. 15<br>D. >15<br>,>15,"That’s right. All the teeth have to continue to erupt after they reach the occlusal  plane, to stay in occlusion while the face is growing taller. Eruption doesn’t stop  until growth is completed—and even late in life, a tooth is likely to start erupting  if its antagonist is lost. So the first molars have to erupt beyond age 15, as long as  vertical growth continues."
(A) Eruption of the mandibular second molars ahead of the second premolars can be a  problem because (B) this decreases the space for the second premolar and may lead  to its impaction.,"A. A true, B true, A and B related<br>B. A true, B true, A and B not related<br>C. A true, B false<br>D. A false, B true<br>E. A and B false<br>","A true, B true, A and B related","That’s correct. The statements are true and related. Even though eruption of the second  molars ahead of the second premolars is a “normal variation”, it’s  unfortunate when space in the dental arches is marginal."
"At dental age 7, where is the maxillary canine located?","A. not visible, crown formation hasn’t started yet<br>B. crown formation beginning just distal to the lateral incisors<br>C. crown partially complete, slightly above and distal to the lateral incisors<br>D. crown partially complete, very high above and slightly distal to the lateral incisors<br>","crown partially complete, very high above and slightly distal to the lateral incisors","That’s right, the maxillary canines initially are very high above and only  slightly distal to the lateral incisor. Their location almost in the floor of the  orbit is why they’re sometimes called “eye teeth”."
What is the effect of a primary dentition with little or no space between the  primary incisors on incisor liability?,"A. decreases it<br>B. little or no effect<br>C. increases it<br>D. unpredictable, primary dentition spacing is unrelated<br>",increases it,"That’s right, if there's little or no spacing in the primary incisor region,  the amount of crowding of the permanent incisors when they erupt will increase."
"At dental age 12, which teeth are expected to be erupting?","A. maxillary canines and mandibular second premolars<br>B. maxillary canines and maxillary second premolars<br>C. all four second premolars<br>D. maxillary canines and all four second premolars<br>E. maxillary canines, all four second premolars and all four second molars<br>","maxillary canines, all four second premolars and all four second molars","That’s correct. At dental age 12, the maxillary canines, all four second premolars  erupt, and all four second molars erupt. The second molars usually are a bit behind the  other teeth, but erupt so close to the same time that they’re part of the age  12 year development."
Which of the following are not succedaneous teeth?,A. central incisors<br>B. canines<br>C. first premolars<br>D. second premolars<br>E. first molars<br>,first molars,"That’s correct, the first molar is not a succedaneous tooth because it has  no primary tooth as a predecessor. Developmentally, the permanent molars can be  considered primary teeth that erupt late and last a lifetime."
The ugly duckling stage of dental development is characterized by:,A. duck-bill protrusion of the incisors<br>B. upper incisors ducked back toward the lower incisors<br>C. spacing of upper and lower permanent incisors<br>D. spacing of upper but not lower permanent incisors<br>,spacing of upper but not lower permanent incisors,"That’s correct, the ugly duckling stage has spaces between the upper  incisors, with the upper laterals inclined distally into the canine space. As the  canines erupt, these spaces tend to close—but an extreme ugly duckling stage  can indicate potential impaction of the canines."
"(A) When the arches are crowded, lateral incisors usually erupt facially and maxillary  canines erupt lingually because (B) teeth tend to erupt on the side where the tooth  bud was lying initially.","A. A true, B true, A and B related<br>B. A true, B true, A and B not related<br>C. A true, B false<br>D. A false, B true<br>E. A and B false<br>","A false, B true","That’s correct. The first statement is false—lateral incisors usually go  lingually and canines facially—but the second is true, teeth tend to erupt on the  side the tooth buds were lying initially."
"(A) In a patient with a potential problem in eruption of the maxillary canines, early  extraction of the maxillary primary canines should be considered because (B) this increases  the chance of the permanent tooth erupting reasonably normally instead of becoming impacted.","A. A true, B true, A and B related<br>B. A true, B true, A and B not related<br>C. A true, B false<br>D. A false, B true<br>E. A and B false<br>","A true, B true, A and B related","That’s correct, the statements are true and related. Early extraction of maxillary primary  canines should be considered when the position of the permanent canines suggests potential impaction."
(A) Eruption of the maxillary canine coincident with the maxillary first premolar  rarely is a problem because (B) the erupting canine tends to close spaces between the  incisors and creates space in that way.,"A. A true, B true, A and B related<br>B. A true, B true, A and B not related<br>C. A true, B false<br>D. A false, B true<br>E. A and B false<br>","A false, B true","That’s correct, the first statement is false and the second one true. Whether or not  there’s incisor spacing, if the canine erupts along with the first premolar, before the  second primary molar is lost, it’s likely to be displaced facially, and that’s a  problem, because orthodontic treatment will be needed to get it back."
Which of the following is not characteristic of dental age 7?,A. eruption of the maxillary central incisors<br>B. eruption of the mandibular lateral incisors<br>C. formation of more than half the root of the maxillary lateral incisors<br>D. crown formation of maxillary and mandibular canines<br>E. approximately half the root formed on maxillary and mandibular first premolars.<br>,approximately half the root formed on maxillary and mandibular first premolars.,"That’s right. At age 7, root formation of first premolars is just beginning,  if they are beyond the crown stage at all."
How much additional space for the incisors is gained by the normal mechanisms  to overcome incisor liability?,"A. the width of one lower incisor<br>B. ½ the width of a lower incisor<br>C. ¼ the width of a lower incisor<br>D. unpredictable, depends on how much was needed and how the child grows.<br>",½ the width of a lower incisor,"That’s correct, the normal mechanisms contribute about 3 mm, or half the width  of a lower incisor. If more space than that would be needed to obtain incisor  alignment, it probably won’t be forthcoming from normal development alone."
Dental age 11 is characterized by eruption of:,A. mandibular canine and all first premolars<br>B. maxillary canine and all first premolars<br>C. mandibular canine and mandibular first premolars<br>D. mandibular canine and maxillary first premolars<br>E. all canines and mandibular first premolars<br>,mandibular canine and all first premolars,"That’s right. At dental age 11, the mandibular canines and all four first premolars  erupt at about the same time. The maxillary canines erupt a year later, at dental age 12."
"In a child whose dental age is 8 years at chronologic age 6 years, what would  you expect her dental age to be at chronologic age 12?",A. 10<br>B. 12<br>C. 14<br>D. >14<br>E. no way to predict<br>,14,"That’s right, a child whose dental development is two years ahead of her  chronologic age at 6 is likely to still be two years ahead when she’s 12. Children  tend to stay in the same developmental percentile channel."
Almost all tooth eruption occurs during which stage of tooth development?,A. initiation<br>B. histodifferentiation<br>C. morphodifferentiation<br>D. growth<br>E. attrition<br>,growth,"That’s correct. Eruption doesn’t start until the growth  stage has been reached. It occurs mostly during the growth stage, but  because very slow eruption persists throughout life, a small amount of  eruption also occurs during the attrition stage (and occurs to some extent  in response to loss of occlusal enamel to attrition)."
How far does a permanent first molar have to erupt after it first  comes into occlusion?,"A. 10 mm or more<br>B. 4-5 mm<br>C. 1-3 mm<br>D. none, eruption ends when the tooth reaches occlusion<br>",10 mm or more,"That’s right. Face height normally increases 20 mm or more  between age 6, when first molars first come into occlusion, and age 18  when the growth rate declines to the very slow adult level. So both  upper and lower first molars each have to erupt 10 mm or more to  maintain occlusal contact as the jaws grow. If they didn’t continue  to erupt, they would appear to submerge into the gingiva as the other  teeth erupted past them—which happens occasionally to a tooth  that becomes ankylosed."
"When a tooth is mechanically blocked from erupting, its root may  become distorted in form. What is the descriptive term for such a root?",A. macerated<br>B. dilacerated<br>C. encapsulated<br>D. commiserated<br>E. eviscerated<br>,dilacerated,"That’s right. A severely curved tooth root is called dilacerated.  This is the result of trauma or a souvenir of mechanically-blocked  eruption. Trauma while the root is still forming can displace the apex.  When the crown can’t move toward the oral cavity because a path  cannot be cleared, root formation continues and the root apex moves away  from the mouth. If it hits a bony wall like the wall of the maxillary  sinus or the lower border of the mandible, a curve in the root is formed."
"During the post-emergent spurt stage of eruption, when does active  eruption occur?",A. mostly from early morning to noon<br>B. mostly from noon to late afternoon<br>C. mostly from late afternoon to midnight<br>D. mostly from midnight to early morning<br>E. no influence of time of day<br>,mostly from late afternoon to midnight,"That’s right. Active eruption occurs mostly in the evening,  beginning in late afternoon or early evening and ending around  midnight. There is little or no net eruption from early morning  until the next evening, and usually the tooth loses some of the  ground it gained the previous evening during the next 18 hours—but  it starts the next day’s eruption from a higher point, so  there’s some net gain each day."
How is eruption controlled after a tooth comes into occlusion?,A. tongue-lip pressures against the teeth<br>B. biting force<br>C. level of circulating growth hormone<br>D. all the above<br>E. none of the above<br>,tongue-lip pressures against the teeth,"That’s right, the experimental evidence suggests that light force of  long duration is the controlling element for post-emergent eruption, and  this probably comes from tongue-lip pressures against the teeth while the  jaws are separated during sleep. Biting force is heavy force of long  duration, so it has the wrong characteristics. The level of growth  hormone may play a role indirectly, since it relates to the amount  of skeletal growth after a tooth comes into occlusion, but its direct  role on blood flow no longer applies."
What is the most important initial diagnostic sign of primary failure  of eruption?,A. 1st molars failing to erupt after eruption path is cleared<br>B. 1st and 2nd molars failing to erupt after eruption path is cleared<br>C. failure of the roots to form after crown formation is complete<br>D. failure of the affected teeth to respond to orthodontic force<br>E. submergence of the affected teeth<br>,1st and 2nd molars failing to erupt after eruption path is cleared,"That’s correct, the primary diagnostic sign of primary failure  of eruption is failure of 1st and 2nd molars to erupt even though an  eruption path has been cleared for them. If first molars fail to erupt,  the problem may be just ankylosis; if other posterior teeth in the same  quadrant also fail to erupt, it’s probably primary failure. In  primary failure, second premolars often also are affected. It’s  true that the affected teeth may appear to submerge over time, and that  they do not respond to orthodontic force, but these are best thought of  as confirmatory rather than initial diagnostic signs."
What controls the rate of pre-emergent eruption?,A. the rate of bone resorption over the tooth<br>B. the rate of root formation<br>C. the rate of formation of new tissue at the root apex<br>D. the amount of force generated by the eruption mechanism<br>,the rate of bone resorption over the tooth,"That’s right, the rate at which obstacles to eruption are removed,  not the rate at which new tissue forms or the amount of force from the  eruption mechanism, is what controls pre-emergent eruption. Normally,  an eruption path is formed, and then the eruption mechanism moves the  tooth along that path so that the crown stays close to the area where  bone, primary tooth roots or gingiva are being resorbed. Failure of a  tooth to follow along a cleared eruption path indicates either  mechanical failure of eruption (ankylosis) or primary failure of  eruption (abnormal PDL, eruption mechanism doesn’t work)."
"(A) If a tooth becomes ankylosed and fails to erupt, it appears to  submerge because (B) the alveolar bone grows past it and may  eventually cover it over.","A. A true, B true, A and B related<br>B. A true, B true, A and B not related<br>C. A true, B false<br>D. A false, B true<br>E. A and B false<br>","A true, B false","That’s correct, the first statement is correct but the second is  false. Alveolar bone forms in response to eruption of a tooth, so if  a tooth becomes ankylosed, no bone forms in that area, and there is  likely to be a long-term alveolar defect. If an ankylosed tooth is  totally covered over, it’s by soft tissue only."
Which of the following is the major mechanism of post-emergent eruption  after a tooth comes into occlusion?,A. shortening of collagen fibers in the PDL<br>B. contractile fibroblasts in the PDL<br>C. pressure from proliferating cells at the root apex<br>D. blood pressure / flow in the PDL<br>,shortening of collagen fibers in the PDL,"That’s right, maturation and shortening of collagen fibers in  the PDL is now thought to be the major mechanism of post-emergent  eruption. The other possibilities cannot be totally ruled out but  are not supported by experimental evidence."
"During the crown formation stage of tooth eruption, the direction of  eruption is:",A. anterior<br>B. posterior<br>C. a and c<br>D. no eruptive movements occur<br>,no eruptive movements occur,"That’s correct. The tooth enlarges during crown formation, but  movement toward the occlusal plane doesn’t start until root  formation begins, and there are no anterior or posterior movements  during crown formation."
The eruption of a mandibular molar is best described relative to the:,A. cranial base<br>B. occlusal plane<br>C. core bone of the maxilla<br>D. core bone of the mandible<br>,core bone of the mandible,"That’s right. An erupting mandibular tooth moves relative to the  cranial base, occlusal plane and maxilla, but eruption is defined as  movement of a tooth relative to its jaw. For a mandibular molar, of  course that’s the mandible."
How does the prognosis for the unerupted teeth in primary failure  of eruption compare to the prognosis for an unerupted tooth that is mechanically  obstructed?,A. worse<br>B. about the same<br>C. better<br>D. impossible to predict<br>,worse,"That’s right, the prognosis is worse. If a mechanical obstruction  is removed, there is a chance that unerupted teeth will erupt on their  own, and if not, they can be pulled into position orthodontically. But  when the eruption mechanism fails, there is an abnormality of the  periodontal ligament that makes teeth impossible to move orthodontically.  The only option in primary failure of eruption is to eventually replace  the unerupted teeth with some type of prosthesis."
"The earlier you mature sexually, the _______ you will be as an adult.",A. shorter<br>B. taller<br>C. heavier<br>D. lighter<br>,shorter,"That’s right. Early sexual maturation means earlier closure of the epiphyses of the  long bones, so the earlier you mature, the shorter you’ll be, and vice versa."
Orthodontic growth modification during adolescence is aimed at:,A. accelerating mandibular growth<br>B. retarding maxillary growth<br>C. retarding mandibular growth<br>D. accelerating maxillary growth<br>E. producing differential growth between maxilla and mandible<br>,producing differential growth between maxilla and mandible,"That’s right. In order to correct jaw discrepancies, differential growth is needed. That might  involve accelerlating or retarding the growth of either jaw."
The first step in the endocrinology of adolescence is:,A. increased secretion of hypothalamic releasing factors<br>B. increased secretion of pituitary gonadotrophins<br>C. increased secretion of estrogen<br>D. increased secretion of testosterone<br>,increased secretion of hypothalamic releasing factors,That’s right. Increased secretion of hypothalamic releasing factors is the first step in  the endocrinologic cascade that leads to adolescence.
The biologic purpose of the endocrinologic sequence is to:,A. amplify the initial hypothalamic signal<br>B. modulate the initial hypothalamic signal<br>C. compensate for the initial hypothalamic signal<br>D. make the control circuitry redundant for greater safety in use<br>,amplify the initial hypothalamic signal,"That’s right. The cascade serves as an amplifier, allowing the very small signal produced by only  a few cells in the hypothalamus to control a large system."
Maximum growth velocity for mandible in boys occurs at which stage?,A. stage I<br>B. stage II<br>C. stage III<br>D. stage IV<br>E. unpredictable<br>,stage III,"That’s right. The adolescent growth spurt for the mandible coincides with the spurt  in height, so it occurs at stage III just as the height spurt does."
At which stage of sexual development in girls does pubic hair first appear?,"A. stage I<br>B. stage II<br>C. stage III<br>D. stage IV<br>E. indeterminate, pigmentation may be delayed<br>",stage I,"That’s right. Pubic hair begins to form at the first stage of sexual development in  girls, at the same time breast buds are noticed."
The “fat spurt” early in puberty in boys leads temporarily to a more feminine  fat distribution pattern because (B) cells in the testis that produce estrogens are stimulated  at this early stage before those that produce androgens.,"A. A true, B true, A and B related<br>B. A true, B true, A and B not related<br>C. A true, B false<br>D. A false, B true<br>E. A and B false<br>","A true, B true, A and B related","That’s right, the statements are true and related. Estrogen release by cells in the  testis (and adrenal cortex) leads to the fat spurt and the temporary feminine fat distribution."
Which of the following is not a major player in the endocrinology of adolescence?,A. hypothalamic releasing factors<br>B. pituitary gonadotrophins<br>C. male and female sex hormones<br>D. adrenocorticotrophins<br>,adrenocorticotrophins,"That is correct. Adrenocorticotrophins are important before, during and after  puberty, but they are not major players in the endocrinologic cascade that  leads to adolescence."
What of the following is not true concerning effects on adolescent growth?,"A. slender body (ectomorphic), later growth spurt<br>B. heavy body (endomorphic), earlier growth spurt<br>C. colder climate, earlier growth spurt<br>D. spring-summer, faster growth rate<br>E. all are true<br>","colder climate, earlier growth spurt","That’s right. All other things being equal, the adolescent growth spurt comes earlier  in children who live in a warmer climate, not a colder one."
"In girls, which of the following is not an indicator of peak growth velocity?","A. noticeable breast development<br>B. axillary hair<br>C. pigmented, curled pubic hair<br>D. menstruation<br>",menstruation,"Noticeable breast development, axillary hair and curled pubic hair are all seen at stage II of  adolescence, when growth velocity peaks. Menstruation doesn’t occur until growth velocity  is declining."
Which of the following indicates that a boy is beyond the peak of the adolescent growth spurt?,A. fine “peach fuzz” on upper lip<br>B. pigmented hair on upper lip<br>C. hair on upper lip and chin<br>D. recent rapid growth in height<br>,hair on upper lip and chin,"That’s right. The appearance of hair on the upper lip and chin is a good indicator  that a boy is  well beyond the peak of the adolescent growth spurt. He's approaching if not  in stage 4. Peach fuzz and pigmented hair on the upper lip are indicators of early and late  stage 3, respectively. Recent rapid growth in height tells you he's in the growth spurt  but not where."
(A) Early maturing boys reach puberty before late maturing girls because (B) the individual  variation in when puberty starts is greater than the average differences between the sexes.,"A. A true, B true, A and B related<br>B. A true, B true, A and B not related<br>C. A true, B false<br>D. A false, B true<br>E. A and B false<br>","A true, B true, A and B related","That’s right. Both statements are true and related. On the average girls reach puberty two years  ahead of boys, but there’s at least a five year spread in the normal distribution for both sexes,  so the early maturing boys easily can reach puberty before the late maturing girls."
Growth pattern of the face refers to:,A. proportional relationships during growth<br>B. changes in proportional relationships during growth<br>C. the rate of growth of the components of the head and face<br>D. all of the above<br>,changes in proportional relationships during growth,"That's right, growth pattern refers to the way proportional relationships  in the face change during growth, not to the proportional relationships  themselves or to the rate of growth of the components."
The major characteristic of a Class I skeletal relationship in a profile  view is:,"A. cranial, facial and dental structures in a nearly straight line<br>B. facial and dental structures straight but prominent to the cranium<br>C. cranial and facial structures in a nearly straight line, teeth can be anywhere<br>D. maxilla forward relative to mandible<br>E. mandible forward relative to maxilla<br>","cranial, facial and dental structures in a nearly straight line","That's correct. In a Class I (normal) relationship, the cranium,  maxilla, maxillary teeth, mandibular teeth and mandible are in a  nearly straight line."
The major characteristic of a Class II skeletal relationship is:,"A. cranial, facial and dental structures in a nearly straight line<br>B. facial and dental structures straight but prominent to the cranium<br>C. cranial and facial structures in a nearly straight line, teeth can be anywhere<br>D. maxilla forward relative to mandible<br>E. mandible forward relative to maxilla<br>",maxilla forward relative to mandible,"That's right. In a Class II relationship the maxilla is forward  relative to the mandible. This can occur because the maxilla grew  normally while the mandible grew less than normal, or because the  maxilla grew too much, or any combination of deficient mandibular  and excess maxillary growth."
The major characteristic of a Class III skeletal relationship is:,"A. cranial, facial and dental structures in a nearly straight line<br>B. facial and dental structures straight but prominent to the cranium<br>C. cranial and facial structures in a nearly straight line, teeth can be anywhere<br>D. maxilla forward relative to mandible<br>E. mandible forward relative to maxilla<br>",mandible forward relative to maxilla,"That's right. In a Class III relationship the mandible is forward  relative to the maxilla. This can occur because the mandible grew  normally while the maxilla grew less than normal, because the  mandible grew too much, or any combination of deficient maxillary  and excess mandibular growth."
For which of the following is the adolescent growth spurt least prominent?,A. weight<br>B. height<br>C. lower jaw length<br>D. upper jaw length<br>,upper jaw length,"That's right. Because the maxilla is influenced by the neural  growth curve, it has less response to the adolescent growth spurt  that particularly affects general body growth than the mandible  and weight / height."
What would you expect to happen to the a-p position of the lower  incisors in response to a Class II growth pattern?,A. forward (facial) movement<br>B. little or no movement<br>C. backward (lingual) movement<br>D. vertical change more probable than a-p change<br>,forward (facial) movement,"That's correct. If the maxilla grows forward more than the mandible  in a Class II growth pattern, often the lower incisors partially  compensate by moving forward (facially)."
What would you expect to happen to the a-p position of the upper  incisors in response to a Class III growth pattern?,A. forward (facial) movement<br>B. little or no movement<br>C. backward (lingual) movement<br>D. vertical change more probable than facio-lingual change<br>,forward (facial) movement,"That's correct. In response to a Class III growth pattern the upper  incisors would tend to tip forward, moving facially. In a skeletal  Class III patient, the forward movement of the upper incisors and  the backward movement of the lower incisors both reduce the relative  protrusion of the lower teeth. This is a classic example of dental  compensation for a skeletal discrepancy. In Class III or Class II  patients, the dental occlusion is often better than the jaw  relationship at the end of growth for this reason."
"In a child with end-to-end permanent first molars at age 10 and a  mild Class II growth pattern, what is the most likely molar  relationship at age 12?",A. Class I<br>B. end-to-end<br>C. Class II<br>D. Class III<br>,end-to-end,"That's correct. With a mild Class II growth pattern it is unlikely  that the end-to-end permanent molars would make the normal shift to  Class I, and most probably they would stay end-to-end. If the Class  II growth pattern was really severe, they could move to Class II.  Transition to Class III would require a severe Class III growth pattern."
"In a child with Class I permanent first molars at age 10 and a  Class III growth pattern, what is the most likely molar relationship  at age 12?",A. Class I<br>B. end-to-end<br>C. Class II<br>D. Class III<br>,Class III,"That's correct. With a Class III growth pattern, molars that were  already Class I at age 10 (when many children with a normal growth  pattern are still end-to-end) would be carried toward Class III, and  that's the most probable molar relation after 2 more years of Class  III growth."
(A) A Class I malocclusion rarely becomes a Class III malocclusion  during growth because (B) a Class II growth pattern rarely occurs in a  Class I patient.,"A. A true, B true, A and B related<br>B. A true, B true, A and B not related<br>C. A true, B false<br>D. A false, B true<br>E. A false, B false<br>","A true, B true, A and B not related","That's right. Both statements are true but they're not related.  Class I rarely becomes Class III because Class III growth pattern  rarely occurs in a Class I patient. A Class II growth pattern would  turn Class I into Class II, not III."
What is the chance that a child with a Class II skeletal pattern would  spontaneously grow out of it and become Class I as an adult?,A. less than 10%<br>B. 10-20%<br>C. 20-40%<br>D. about 50%<br>E. totally unpredictable - no way to know<br>,less than 10%,"""That's right. Spontaneous correction of a skeletal Class II or  Class III pattern rarely occurs. The general rule is """"constancy  of the pattern"""", meaning that whatever the growth pattern is,  it's unlikely to change (but of course unlikely things do happen,  they just don't happen very often). The chance of spontaneous  correction of a skeletal Class II or Class III is considerably  less than 10%, in fact probably closer to 1%."""
"(A) In a child with a skeletal open bite growth pattern, positive  overbite can be present because (B) increased eruption of incisors  would compensate for the open bite tendency.","A. A true, B true, A and B related<br>B. A true, B true, A and B not related<br>C. A true, B false<br>D. A false, B true<br>E. A false, B false<br>","A true, B true, A and B related","That's right, increased eruption of incisors could compensate for  a skeletal open bite growth pattern, maintaining positive overbite  even though the mandible was growing downward away from the maxilla."
Which of the following signals the end of growth in height?,A. closure of epiphyseal plates of femur and tibia<br>B. closure of epiphyseal plates of humerus and radius<br>C. fusion of cervical vertebrae<br>D. all three are equally important<br>,closure of epiphyseal plates of femur and tibia,That’s correct. The long bones of the legs can’t grow  significantly longer after their epiphyseal plates close.
"One of your 55-year-old patients commented that he used to be 6  feet tall, but now he’s only 5”11”. What would  you think was the most likely cause?",A. resorption of bone in the hips<br>B. resorption of bone in the knees<br>C. curvature of the cervical spine<br>D. compression of cervical vertebrae<br>E. compression of intervertebral discs<br>,compression of intervertebral discs,"That’s right, aging men and women are likely to notice a loss of  one or two inches in height, and the usual cause is compression of  intervertebral discs. Resorption of bone in hip or knee joints is  unlikely to lead to noticeable height loss, and vertebrae don’t  get compressed (in the absence of severe trauma). Spinal curvature is a  possible but unlikely cause of height loss."
Which of the following is not associated with increasing age?,A. 1-2 mm forward growth of the mandible<br>B. 1-2 mm lengthening of the mandibular ramus<br>C. widening of the nose<br>D. decreased prominence of the nasal tip<br>E. increased prominence of the nasolabial fold<br>,decreased prominence of the nasal tip,"That’s right. With increasing age the nose almost always  becomes more, not less prominent. It widens as well as growing  forward and downward, and the nasolabial fold (the vertical fold  along the sides of the nose) deepens. Slow forward growth of the  mandible and lengthening of the ramus also usually occur."
"(A) In patients who have been treated orthodontically for a skeletal  problem like a deficient mandible, some return of the original  condition is likely long after treatment was completed because  (B) the slow growth that occurs in adults tends to be in the same  pattern that produced the skeletal problem initially.","A. A true, B true, A and B related<br>B. A true, B true, A and B not related<br>C. A true, B false<br>D. A false, B true<br>E. A and B false<br>","A true, B true, A and B related","That’s right. The two statements are true and related. Even  though facial growth during adult life is very slow, if the upper  jaw grows more than the lower jaw, there will be a partial return  of the original jaw relationship in a patient previously treated to  correct mandibular deficiency—and that pattern of growth is  likely in a patient who had deficient mandibular growth in childhood  and adolescence."
Which of the following are typical aging changes in the facial soft tissues?,A. a only<br>B. b only<br>C. c and d<br>D. all the above<br>E. none of the above<br>,none of the above,a) flattening of the nasolabial fold b) widening of the vermilion border of the lip c) increased display of the upper incisors d) increasing tightness of the cheeks
(A) Girls may become concerned about the fullness of their lips  in their 20s because (B) lip growth may continue beyond adolescence  and eventually lead to a need for lip reduction.,"A. A true, B true, A and B related<br>B. A true, B true, A and B not related<br>C. A true, B false<br>D. A false, B true<br>E. A and B false<br>","A true, B false","That’s correct, the first statement is true but the second one is  false. Lip fullness is maximal at about age 16, and decreases after  that. If a girl is concerned about lip fullness in her 20s, almost  always it’s concern about loss of fullness, not excessive fullness."
"Relative to the upper incisors, which movements are characteristic of aging lips?",A. 1 and 2<br>B. 1 and 4<br>C. 2 and 3<br>D. 3 and 4<br>,3 and 4,1) forward 2) upward 3) backward 4) downward
"On the average, how much of the upper incisor is displayed when  the lips are at rest in a patient who is over age 60?","A. none, the lower incisors show but the uppers don’t<br>B. 1 mm<br>C. 2 mm<br>D. 3 mm<br>E. 4 mm or more<br>","none, the lower incisors show but the uppers don’t","That’s right, by age 60 the upper incisors are not visible when  the lips are at rest, while on average the lower incisors have about  3 mm exposure."
"For best facial appearance in a normal adult, which of the following  would be the most desirable change in the position of the  incisors relative to the upper lip during orthodontic treatment  or prosthodontic replacement?",A. 1 only<br>B. 2 only<br>C. 1 and 2<br>D. 1 and 4<br>,1 and 2,(1) upper and lower incisors down  (2) upper and lower incisors forward  (3) upper and lower incisors up (4) upper and lower incisors back
By what age would you expect to see wear on permanent teeth in a  patient on a primitive hard / abrasive diet?,A. age 8<br>B. 10<br>C. 12<br>D. 16<br>E. 20<br>,age 8,"That’s correct. Wear would be noted on the permanent teeth  within 2 years of the time they erupted, so already at age 8 the  first permanent molars and probably the incisors would show wear."
Aging changes in the dental pulp typically make the pulp chamber:,A. shorter and wider<br>B. shorter and narrower<br>C. longer and wider<br>D. longer and narrower<br>,shorter and narrower,"That’s right. As you get older, the pulp chamber typically  becomes narrower as dentin fills in the sides, and shorter as  dentin is added across the upper part of the chamber."
(A) Lengthening of the clinical crown of teeth usually occurs  by passive eruption because (B) retraction of the gingiva is  necessary to completely expose the clinical crown.,"A. A true, B true, A and B related<br>B. A true, B true, A and B not related<br>C. A true, B false<br>D. A false, B true<br>E. A and B false<br>",A and B false,"That’s correct. Both statements are false. Retraction of the  gingiva in children and adolescents, which is described as passive  eruption, usually is less important in obtaining exposure of the  clinical crown than active eruption in concert with vertical  growth of the jaws."
What is the best description of the relationship between 3rd molar  eruption or impaction and late crowding of lower incisors?,A. almost always 3rd molars are the cause of late incisor crowding<br>B. often but not always 3rd molars are to blame<br>C. perhaps a little effect from 3rd molars but not the major cause<br>D. 3rd molars are too far away to have any effect on incisor position<br>,perhaps a little effect from 3rd molars but not the major cause,"That’s right. Several lines of evidence indicate that 3rd molars  are not a major contributor to incisor crowding, but some studies  suggest that they may be a minor contributor."
(A) Late crowding of lower incisors usually accompanies late forward  growth of the mandible because (B) the forward growth increases  tongue pressure on the incisors and tips them facially.,"A. A true, B true, A and B related<br>B. A true, B true, A and B not related<br>C. A true, B false<br>D. A false, B true<br>E. A and B false<br>","A true, B false","That’s right, the first statement is true and the second one  is false. Late crowding of lower incisors accompanies forward growth  of the mandible because the growth increases lip pressure that tips  the incisors lingually, shortening arch perimeter and causing crowding."
Which of the following is not a mechanism by which behavioral  responses are learned?,A. parental instruction<br>B. classical conditioning<br>C. operant conditioning<br>D. observational learning<br>,parental instruction,"That’s correct. The three distinct mechanisms by which  behavioral responses are learned are classical conditioning,  operant conditioning, and observational learning. Parental  instruction could relate to any of these (though observation  of what the parent does is more important than what he or she  said), but it is not a distinct mechanism."
(A) Classical conditioning is particularly important in young children  because (B) even young children can generalize from associations between  different stimuli.,"A. A true, B true, A and B related<br>B. A true, B true, A and B not related<br>C. A true, B false<br>D. A false, B true<br>E. A and B false<br>","A true, B true, A and B related","That’s right. The generalization from associations between  different stimuli that is the heart of classical conditioning  develops before a child is able to manage more complex  conditions that exist with operant conditioning and  observational learning, so it’s particularly important  in young children."
(A) The consequence following a given behavior can be a stimulus  affecting future behavior because (B) pleasure and praise following  a behavior increases the chance of that behavior appearing again.,"A. A true, B true, A and B related<br>B. A true, B true, A and B not related<br>C. A true, B false<br>D. A false, B true<br>E. A and B false<br>","A true, B true, A and B not related","That’s right, both statements are true but they’re  not directly related in a cause and effect sense. Whether the  consequence of behavior is pleasant or unpleasant, the chance  of that behavior appearing again is affected. Pleasure and  praise increases it; displeasure or pain decreases it. This,  of course, is the heart of operant conditioning."
Which of the following consequences is most effective in producing  appropriate behavior when a child is receiving dental treatment?,A. reward<br>B. escape<br>C. time-out<br>D. punishment<br>E. they’re equally effective<br>,reward,"That’s right. Providing a reward for desired behavior, whether  the reward is a tangible gift or just verbal praise, is by far the  most acceptable and effective of the operant conditioning mechanisms  in the dental office."
Which of the following consequences is least effective in  decreasing the chance of inappropriate behavior when a child is  receiving dental treatment?,A. reward<br>B. escape<br>C. time-out<br>D. punishment<br>E. they’re equally effective<br>,time-out,"That’s right, omission of a reward (time-out) might work in  some situations in the dental office, but in the setting of dental  treatment it is the least effective of the operant conditioning  methods. Reward and escape would reinforce the inappropriate behavior  and would not be indicated. Punishment has to be used very carefully,  but a mild form of punishment in the form of voice control would be  more likely to succeed, and if it did, positive reinforcement of  the correct behavior would be used immediately."
"(A) A child who receives rewards for good behavior at the  pediatrician’s office is likely to behave well initially at  the dentist’s office because (B) given the similarity of the  situation, he or she will anticipate a reward from the dentist as well.","A. A true, B true, A and B related<br>B. A true, B true, A and B not related<br>C. A true, B false<br>D. A false, B true<br>E. A and B false<br>","A true, B true, A and B related","That’s correct, a child who is rewarded at the  pediatrician’s office is likely to expect a reward from  the dentist—and may eventually behave better for the  pediatrician than the dentist if he or she doesn’t get it."
Which of the following affect the chance that a child who has acquired a  behavior (by observing it) will actually display it?,"A. 1, 4, and 5<br>B. 2, 3 and 4<br>C. 4 and 5<br>D. 1, 2 and 3<br>E. all of the above<br>",all of the above,"That’s right, all of these will affect the chance that a behavior  acquired by observing it will actually be performed. Parents, older  siblings and peers all have an influence as role models, and a child  is much more likely to perform a behavior if he or she sees it being  rewarded than if it is punished. The performance of the behavior is  affected either way."
Which of these stages of emotional development is expected at ages 3-6?,A. development of personal identity<br>B. development of autonomy<br>C. development of basic trust<br>D. development of initiative<br>,development of initiative,"That’s right, the expected stage of emotional development  at ages 3-6 is development of initiative. The child should have  succeeded by then in establishing basic trust vs mistrust, and in  developing autonomy vs shame and mistrust. Development of personal  identity occurs during adolescence."
(A) An adolescent who is being pushed by his parents to have orthodontic  treatment is likely to become a cooperative patient because (B) his parents are  likely to offer rewards for good behavior.,"A. A true, B true, A and B related<br>B. A true, B true, A and B not related<br>C. A true, B false<br>D. A false, B true<br>E. A and B false<br>","A false, B true","That’s right, the first statement is false although the  second one frequently is true. An adolescent who is fighting  for independence from his parents sometimes makes the  orthodontic treatment a battlefield, and refuses to cooperate  just to the parents. It’s important for the treatment to  be his idea, or at least something he has agreed to. Otherwise  orthodontics can be a bad experience for the patient, family  and orthodontist."
Which of the following are characteristics that an adolescent who never  resolved basic trust vs mistrust might display during dental or orthodontic  treatment?,"A. 1 and 2<br>B. 3 and 4<br>C. 1,2 and 3<br>D. 1,2 and 4<br>E. all the above<br>","1,2 and 4","That’s correct. An adolescent like this is likely to be  frightened and uncooperative, and can become an acceptable  patient after special effort, but he is a poor candidate for any  type of punishment in the dental office, even the mild form of  voice control. Reassurance and careful management to build up  trust are required."
Which of the following are characteristics that a mother who  never resolved intimacy vs isolation might display when her  child needs dental treatment?,"A. 1 and 2<br>B. 3 and 4<br>C. 1, 2, and 3<br>D. 1, 2, and 4<br>E. all the above<br>",all the above,"That’s right. A mother who never resolved the problems of  intimacy vs isolation is likely to show all these characteristics  when she deals with a dentist who is treating, or trying to treat,  her child."
"(A) In the preoperational period of cognitive development, it appears that  a child’s thought processes are like those of adults because  (B) a child at this stage begins to use language in ways similar  to adults.","A. A true, B true, A and B related<br>B. A true, B true, A and B not related<br>C. A true, B false<br>D. A false, B true<br>E. A and B false<br>","A true, B true, A and B related","That’s right, both statements are true and they’re  related. Children at this stage use language in a way similar  to adults, and so may seem to be thinking like an adult, but  their thought processes are distinctly different. Because they  use words to symbolize the appearance of objects, they often do  not recognize function or other characteristics, and thus may  understand something quite different from a word than an adult would."
Which of the following are characteristics of a child in the period  of concrete operations?,"A. 1 and 2<br>B. 3 and 4<br>C. 1, 2, and 3<br>D. 1, 2, and 4<br>E. all the above<br>",1 and 2,"That’s right, the first two statements are characteristics of  the period of concrete operations, while the last two are not. At this  time, a child can use a limited number of logical processes, especially  when this involves objects that can be handled and manipulated, but  still lacks the capacity to deal with abstract concepts. Animism is  less important than in the previous stage but still is present, and  the ability to see another point of view emerges."
At what age does a child typically develop the thought processes  that are characteristic of an adult?,A. 11<br>B. 12<br>C. 13<br>D. 14<br>E. 16<br>,11,"That’s right, adult thought processes appear at about 11  in most children, and at that point a child should be treated as  an adult, not “talked down to”. This doesn’t  mean, of course, that he or she will behave like an adult, just  that learning now is done in the same fashion as adults."
Which of the following are characteristic of an adolescent?,"A. 1 and 2<br>B. 3 and 4<br>C. 1, 2, and 3<br>D. 1, 3, and 4<br>E. all the above<br>","1, 3, and 4","That’s right, the first, third and last statements are correct  but the second one is not. Adolescents have a high susceptibility to  peer role models, in part because they assume that others are carefully  noticing what they are doing. Their feeling of uniqueness (their  personal fable) leads to a lack of concern about risky behavior."
